<svg id="Component_43_25" data-name="Component 43 – 25" xmlns="http://www.w3.org/2000/svg" width="161.585" height="79.101" viewBox="0 0 161.585 79.101">
  <g id="Group_2741" data-name="Group 2741" transform="translate(21.145)">
    <path id="Path_909" data-name="Path 909" d="M2081.567,173.217h31.176a2.652,2.652,0,0,0,2.623-2.61v-2.833h-33.275a1.268,1.268,0,1,1,0-2.535h33.275V120.58h-45.941v6.859a1.273,1.273,0,0,1-2.546,0V115.212a5.1,5.1,0,0,1,5.169-5.145h40.695a5.1,5.1,0,0,1,5.169,5.145v55.4a5.163,5.163,0,0,1-5.169,5.145h-31.176a1.268,1.268,0,1,1,0-2.535Zm31.176-60.615h-40.695a2.59,2.59,0,0,0-2.624,2.61v2.833h45.941v-2.833A2.59,2.59,0,0,0,2112.742,112.6Z" transform="translate(-2051.891 -97.603)" fill="#2e2e2d"/>
    <path id="Path_910" data-name="Path 910" d="M2138.256,283.01a1.268,1.268,0,1,1,0,2.535h-.976a1.268,1.268,0,1,1,0-2.535Z" transform="translate(-2097.265 -211.422)" fill="#2e2e2d"/>
    <path id="Path_911" data-name="Path 911" d="M2181.774,191.807a1.269,1.269,0,0,1-1.273-1.268V174.062a3.854,3.854,0,0,1,3.9-3.8h19.183a3.81,3.81,0,0,1,3.9,3.8V211.49a3.891,3.891,0,0,1-3.9,3.877H2184.4a3.939,3.939,0,0,1-3.9-3.877V194.64a1.273,1.273,0,0,1,2.546,0v16.85a1.382,1.382,0,0,0,1.35,1.342h19.183a1.332,1.332,0,0,0,1.351-1.342V174.062a1.268,1.268,0,0,0-1.351-1.267H2201.3l-.925,3.05a1.269,1.269,0,0,1-1.219.9h-10.268a1.274,1.274,0,0,1-1.214-.881l-.989-3.071H2184.4a1.313,1.313,0,0,0-1.35,1.267v16.477A1.269,1.269,0,0,1,2181.774,191.807Zm8.048-17.6h8.391l.43-1.416h-9.278Z" transform="translate(-2180.501 -137.218)" fill="#2e2e2d"/>
    <path id="Path_912" data-name="Path 912" d="M2216.91,283.01a1.268,1.268,0,1,1,0,2.535h-.9a1.268,1.268,0,1,1,0-2.535Z" transform="translate(-2202.973 -211.422)" fill="#2e2e2d"/>
    <path id="Path_913" data-name="Path 913" d="M2051.417,276.907a1.266,1.266,0,1,1,0,2.533h-.973a1.266,1.266,0,1,1,0-2.533Z" transform="translate(-1980.586 -207.406)" fill="#2e2e2d"/>
    <path id="Path_914" data-name="Path 914" d="M1851.584,283.246h67.835a1.911,1.911,0,0,0,1.949-1.865V279.44H1873.06l-1.647,1.7a1.274,1.274,0,0,1-.918.388H1857.53a1.266,1.266,0,1,1,0-2.533h12.422l1.647-1.7a1.273,1.273,0,0,1,.918-.388h50.124a1.269,1.269,0,0,1,1.274,1.266v3.208a4.453,4.453,0,0,1-4.5,4.4h-67.835a1.266,1.266,0,1,1,0-2.533Z" transform="translate(-1783.476 -207.406)" fill="#2e2e2d"/>
    <path id="Path_915" data-name="Path 915" d="M1972.771,141.991a1.269,1.269,0,0,1-1.274-1.266V80.842H1864.28a1.268,1.268,0,1,1,0-2.535H1971.5v-.149a2.046,2.046,0,0,0-2.024-2.012H1863.606a2.046,2.046,0,0,0-2.024,2.012v4.92a1.274,1.274,0,0,1-2.548,0v-4.92a4.566,4.566,0,0,1,4.572-4.548h105.867a4.566,4.566,0,0,1,4.573,4.548v62.567A1.269,1.269,0,0,1,1972.771,141.991Z" transform="translate(-1836.602 -73.61)" fill="#2e2e2d"/>
  </g>
  <g id="Group_2742" data-name="Group 2742" transform="translate(0 52.305)">
    <path id="Path_919" data-name="Path 919" d="M2274.4,231.957l1.166-4.59a1.015,1.015,0,0,1,.985-.762h8.654c.017,0,.033,0,.05.005a1.032,1.032,0,0,1,.137.014c.022,0,.043.011.065.016a1.027,1.027,0,0,1,.126.039c.021.009.042.02.063.03s.059.025.086.041c.01.006.018.014.028.021s.033.024.049.037a1.059,1.059,0,0,1,.106.087c.012.012.022.026.034.038a.978.978,0,0,1,.091.109c.012.018.022.037.033.055a.974.974,0,0,1,.06.11c.013.029.022.061.032.092s.02.049.026.075l1.138,4.582a2.6,2.6,0,0,1,1.776,2.454v11.216a2.569,2.569,0,0,1-1.776,2.427l-1.138,4.58a1,1,0,0,1-.037.108c-.006.016-.01.033-.016.049a1,1,0,0,1-.09.164.1.1,0,0,1-.009.012.974.974,0,0,1-.11.132l-.025.023a1,1,0,0,1-.118.1l-.034.022a1.033,1.033,0,0,1-.13.071l-.038.017a1.024,1.024,0,0,1-.153.048l-.029.007a1.007,1.007,0,0,1-.2.021h-8.655a1.015,1.015,0,0,1-.985-.762l-1.166-4.588a2.565,2.565,0,0,1-1.749-2.424V234.409A2.592,2.592,0,0,1,2274.4,231.957Zm.282,13.668a.557.557,0,0,0,.544.542H2286.5a.559.559,0,0,0,.574-.542V234.409a.559.559,0,0,0-.569-.571h-11.284a.558.558,0,0,0-.538.57Zm10.521-13.807-.793-3.193h-7.068l-.811,3.193Zm-.793,19.562.793-3.192h-8.672l.811,3.192Z" transform="translate(-2272.646 -226.605)" fill="#2e2e2d"/>
  </g>
</svg>
