<svg xmlns="http://www.w3.org/2000/svg" width="8.17" height="6.505" viewBox="0 0 8.17 6.505">
  <path id="check" d="M10.97,4.97a.75.75,0,1,1,1.071,1.05L8.049,11.01a.75.75,0,0,1-1.08.02L4.324,8.384a.75.75,0,1,1,1.06-1.06L7.478,9.417l3.473-4.425.02-.022Z" transform="translate(-4.085 -4.745)" fill="#fff" fill-rule="evenodd"/>
</svg>
